{
  "version": 1,
  "libraries": {
    "client": [
    ],
    "common": [
      {
        "name": "net.minecraft:launchwrapper:1.12"
      },
      {
        "name": "net.fabricmc:tiny-mappings-parser:0.3.0+build.17",
        "url": "https://maven.fabricmc.net/"
      },
      {
        "name": "net.fabricmc:sponge-mixin:0.10.0+mixin.0.8.4.snapshot",
        "url": "https://maven.fabricmc.net/"
      },
      {
        "name": "net.fabricmc:tiny-remapper:0.6.0",
        "url": "https://maven.fabricmc.net/"
      },
      {
        "name": "net.fabricmc:access-widener:2.0.0",
        "url": "https://maven.fabricmc.net/"
      },
      {
        "name": "org.ow2.asm:asm:9.2",
        "url": "https://maven.fabricmc.net/"
      },
      {
        "name": "org.ow2.asm:asm-analysis:9.2",
        "url": "https://maven.fabricmc.net/"
      },
      {
        "name": "org.ow2.asm:asm-commons:9.2",
        "url": "https://maven.fabricmc.net/"
      },
      {
        "name": "org.ow2.asm:asm-tree:9.2",
        "url": "https://maven.fabricmc.net/"
      },
      {
        "name": "org.ow2.asm:asm-util:9.2",
        "url": "https://maven.fabricmc.net/"
      }
    ],
    "server": [
    ]
  },
  "mainClass": "net.minecraft.launchwrapper.Launch",
  "arguments": {
    "client": [
    ],
    "common": [
    ],
    "server": [
    ]
  },
  "launchwrapper": {
    "tweakers": {
      "client": [
        "net.fabricmc.loader.impl.game.minecraft.launchwrapper.FabricClientTweaker"
      ],
      "common": [
      ],
      "server": [
        "net.fabricmc.loader.impl.game.minecraft.launchwrapper.FabricServerTweaker"
      ]
    }
  }
}
